// Jest Snapshot v1, https://goo.gl/fbAQLP

exports[`CreateEndpoint matches snapshot 1`] = `
<div class="container">
  <div class="title">New endpoint</div>
  <endpoint-form-stub endpoint="[object Object]"></endpoint-form-stub>
</div>
`;
