// Jest Snapshot v1, https://goo.gl/fbAQLP

exports[`Endpoints matches snapshot 1`] = `
<div class="container">
  <div class="level">
    <div class="level-left">
      <div class="level-item">
        <router-link-stub to="[object Object]" class="button"><span class="icon"><font-awesome-icon-stub icon="plus"></font-awesome-icon-stub></span> <span>
            New endpoint
          </span></router-link-stub>
      </div>
    </div>
  </div>
</div>
`;

exports[`Endpoints matches snapshot 2`] = `
<div class="container">
  <div class="level">
    <div class="level-left">
      <div class="level-item">
        <router-link-stub to="[object Object]" class="button"><span class="icon"><font-awesome-icon-stub icon="plus"></font-awesome-icon-stub></span> <span>
            New endpoint
          </span></router-link-stub>
      </div>
    </div>
  </div>
  <endpoint-card-stub endpoint="[object Object]"></endpoint-card-stub>
  <endpoint-card-stub endpoint="[object Object]"></endpoint-card-stub>
  <endpoint-card-stub endpoint="[object Object]"></endpoint-card-stub>
  <endpoint-card-stub endpoint="[object Object]"></endpoint-card-stub>
</div>
`;
