// Jest Snapshot v1, https://goo.gl/fbAQLP

exports[`Navbar matches snapshot 1`] = `
<nav role="navigation" aria-label="main navigation" class="navbar is-fixed-top is-spaced has-shadow">
  <div class="navbar-brand">
    <router-link-stub to="/" class="navbar-item">
      <p class="title">panto∙watch</p>
    </router-link-stub>
    <div data-target="navbar-menu" class="navbar-burger burger"><span></span> <span></span> <span></span></div>
  </div>
  <div id="navbar-menu" class="navbar-menu">
    <div class="navbar-start">
      <router-link-stub to="[object Object]" class="navbar-item is-size-5"><span class="icon"><font-awesome-icon-stub icon="list-ul"></font-awesome-icon-stub></span> <span>Endpoints</span></router-link-stub>
      <router-link-stub to="[object Object]" class="navbar-item is-size-5"><span class="icon"><font-awesome-icon-stub icon="bullhorn"></font-awesome-icon-stub></span> <span>Alerts</span></router-link-stub>
    </div>
    <div class="navbar-end">
      <div class="navbar-item">
        <p class="control"><button id="logout-button" class="button is-primary is-outlined"><span class="icon"><font-awesome-icon-stub icon="sign-out-alt"></font-awesome-icon-stub></span> <span>
              Sign out
            </span></button></p>
      </div>
    </div>
  </div>
</nav>
`;
